"0","# Nw we want to compute mean and max in that time window"
"0","# on that day for each observation"
"0","master_df = master_df %>% ungroup() %>%"
"0","  group_by(date = date(date_time), window = time_window ) %>%"
"0","  mutate(window_mean_wtbs = mean(wait_hourly, na.rm = T),"
"0","         window_max_wtbs = max(wait_hourly)) %>%"
"0","  ungroup() %>% "
"0","  mutate(window_mean_wtbs_ntile = ntile(window_mean_wtbs, 100  ),"
"0","         window_max_wtbs_ntile = ntile(window_max_wtbs, 100))"
"0","View(dplyr::select(master_df, date_time, wait_hourly, window_mean_wtbs,"
"0","                   window_max_wtbs, window_mean_wtbs_ntile, window_max_wtbs_ntile))"
