"0","master = filter(master, date_time > ymd_hms(""2016-09-30 10:00:00"") )"
"0","master_xts = xts(master[, -1], order.by = master$date_time)"
"0","## Create all of the lagged indicators"
"0","for(i in 1:length(colnames(master_xts))){"
"0","  "
"0","  # Isolate the column name"
"0","  colname_i = colnames(master_xts)[i]"
"0","  "
"0","  # Create the lagged indicators 12 hours"
"0","  master_xts$temp_name1 =  lag.xts( master_xts[, colname_i], k = 12, lag = 1)"
"0","  names(master_xts)[names(master_xts) == 'temp_name1'] = paste0(colname_i, ""_lag_12hr"")"
"0","  "
"0","  # Create the lagged indicators 24 hours"
"0","  master_xts$temp_name2 =  lag.xts( master_xts[, colname_i], k = 24, lag = 1)"
"0","  names(master_xts)[names(master_xts) == 'temp_name2'] = paste0(colname_i, ""_lag_24hr"")"
"0","  "
"0","  # Create the lagged indicators 48 hours"
"0","  master_xts$temp_name3 =  lag.xts( master_xts[, colname_i], k = 48, lag = 1)"
"0","  names(master_xts)[names(master_xts) == 'temp_name3'] = paste0(colname_i, ""_lag_48hr"")"
"0","  "
"0","  "
"0","}"
"0","## Now create rolling means for all indicators"
"0","for(i in 1:length(colnames(master_xts))){"
"0","  "
"0","  # Isolate the column name"
"0","  colname_i = colnames(master_xts)[i]"
"0","  "
"0","  # Create the 6 hour rolling mean"
"0","  master_xts$temp_name1 = rollapply(   master_xts[, colname_i],"
"0","                                       width = 6,"
"0","                                       FUN=function(x) mean(x, na.rm=TRUE),"
"0","                                        by=1, by.column=TRUE,"
"0","                                       fill=NA, align=""right"" )"
"0","  names(master_xts)[names(master_xts) == 'temp_name1'] = paste0(colname_i, ""_6hr_rollmean"")"
"0","  "
"0","  # Create the 12 hour rolling mean"
"0","    master_xts$temp_name2 = rollapply(   master_xts[, colname_i],"
"0","                                       width = 12,"
"0","                                       FUN=function(x) mean(x, na.rm=TRUE),"
"0","                                        by=1, by.column=TRUE,"
"0","                                       fill=NA, align=""right"" )"
"0","  names(master_xts)[names(master_xts) == 'temp_name2'] = paste0(colname_i, ""_12hr_rollmean"")"
"0","  "
"0","  # Create the 24 hour rolling mean"
"0","  master_xts$temp_name3 = rollapply(   master_xts[, colname_i],"
"0","                                       width = 24,"
"0","                                       FUN=function(x) mean(x, na.rm=TRUE),"
"0","                                        by=1, by.column=TRUE,"
"0","                                       fill=NA, align=""right"" )"
"0","  names(master_xts)[names(master_xts) == 'temp_name3'] = paste0(colname_i, ""_24hr_rollmean"")"
"0","  "
"0","  # Create the 48 hour rolling mean"
"0","  master_xts$temp_name4 = rollapply(   master_xts[, colname_i],"
"0","                                       width = 48,"
"0","                                       FUN=function(x) mean(x, na.rm=TRUE),"
"0","                                        by=1, by.column=TRUE,"
"0","                                       fill=NA, align=""right"" )"
"0","  names(master_xts)[names(master_xts) == 'temp_name4'] = paste0(colname_i, ""_48hr_rollmean"")"
"0","  "
"0","  "
"0","}"
